Fill:0
1,6,-1,0
1,5,-2,0
1,4,-3,0
1,4,2,0
1,5,3,0
1,6,4,0
1,2,-2,-1
1,2,-2,-2
1,2,-1,-2
1,2,2,-2
1,2,3,-2
1,2,3,-1
1,2,-2,-3
1,2,-1,-3
1,2,2,-3
1,2,3,-3
1,3,4,-1
1,3,4,-2
1,3,4,-3
1,3,-1,-1
1,1,-3,-1
1,1,-3,-2
1,1,-3,-3
1,1,2,-1
0,27,0,0
0,27,1,0
0,27,1,-1
0,27,0,-1
2,25,3,2
2,25,-2,2
1,26,3,3
1,26,-2,3
2,2,0,-2
2,2,0,-3
2,2,1,-3
2,2,1,-2
0,30,0,1
0,36,1,1
0,36,1,2
0,30,0,2
0,30,0,4
0,36,1,3
0,30,0,3
0,36,1,4
0,36,1,5
0,30,0,5
0,28,1,6
0,28,0,7
0,28,1,7
0,34,2,6
0,34,-1,6
0,28,2,7
0,28,3,7
0,34,4,7
0,28,-1,7
0,28,-2,7
0,34,-3,7
0,29,-2,6
0,35,3,6
0,35,5,7
0,29,-4,7
0,35,6,8
0,35,7,9
0,36,7,10
0,35,8,11
0,29,-5,8
0,29,-6,9
0,30,-6,10
0,29,-7,11
0,28,-4,8
0,28,-3,8
0,28,-2,8
0,28,-1,8
0,28,0,8
0,28,1,8
0,28,2,8
0,28,3,8
0,28,4,8
0,28,5,8
0,28,6,9
0,28,6,10
0,27,7,11
0,27,6,11
0,28,5,9
0,28,3,9
0,28,2,9
0,28,1,9
0,28,0,9
0,28,-1,9
0,28,-2,9
0,28,-4,9
0,28,-5,9
0,28,-5,10
0,28,-4,10
0,28,-3,9
0,28,-3,10
0,27,-6,11
0,27,-5,11
0,27,-4,11
0,27,-3,11
0,27,-2,11
0,27,1,11
0,27,2,11
0,27,3,11
0,27,4,11
0,27,5,11
0,28,5,10
0,28,4,10
0,28,4,9
0,28,3,10
0,28,1,10
0,28,2,10
0,28,0,10
0,28,-1,10
0,28,-2,10
0,27,-1,11
0,28,0,6
0,37,-2,5
0,37,-3,6
0,37,-4,6
0,37,-5,7
0,37,-6,8
0,37,-7,9
0,37,-7,10
0,37,-8,11
0,37,-1,5
0,37,-1,4
0,37,-1,3
0,37,-1,2
0,37,-1,1
0,37,2,1
0,37,2,2
0,37,2,3
0,37,2,4
0,37,2,5
0,37,3,5
0,37,4,6
0,37,5,6
0,37,6,7
0,37,7,8
0,37,8,9
0,37,8,10
0,37,9,11
1,37,-4,0
1,37,-4,-1
1,37,-4,-2
1,37,-4,-3
1,37,-4,-4
1,37,-3,-4
1,37,-2,-4
1,37,-1,-4
1,37,0,-4
1,37,1,-4
1,37,2,-4
1,37,3,-4
1,37,4,-4
1,37,5,-4
1,37,5,-3
1,37,5,-2
1,37,5,-1
1,37,5,0
0,28,7,12
0,28,7,13
0,28,7,14
0,28,7,15
0,28,7,16
0,28,7,17
0,28,7,18
0,28,7,19
0,28,7,20
0,28,7,21
0,27,6,21
0,27,5,21
0,27,4,21
0,27,3,21
0,27,2,21
0,27,1,21
0,27,0,21
0,27,-1,21
0,27,-2,21
0,27,-3,21
0,27,-4,21
0,27,-5,21
0,28,-6,20
0,28,-6,19
0,28,-6,18
0,28,-6,17
0,28,-6,16
0,28,-6,15
0,28,-6,14
0,28,-6,13
0,28,-6,12
0,30,-7,12
0,30,-7,13
0,30,-7,14
0,30,-7,16
0,30,-7,15
0,30,-7,17
0,30,-7,18
0,30,-7,19
0,30,-7,20
0,36,8,21
0,36,8,20
0,36,8,19
0,36,8,18
0,36,8,17
0,36,8,16
0,36,8,15
0,36,8,14
0,36,8,13
0,36,8,12
0,37,9,12
0,37,9,13
0,37,9,14
0,37,9,15
0,37,9,16
0,37,9,17
0,37,9,18
0,37,9,19
0,37,9,20
0,37,9,21
0,37,-8,12
0,37,-8,13
0,37,-8,14
0,37,-8,15
0,37,-8,16
0,37,-8,17
0,37,-8,18
0,37,-8,19
0,37,-8,20
0,37,-8,21
0,27,0,11
0,27,0,22
0,27,6,22
0,27,5,22
0,27,4,22
0,27,3,22
0,27,2,22
0,27,1,22
0,27,-1,22
0,27,-2,22
0,27,-3,22
0,27,-4,22
0,27,-5,22
0,27,-6,22
0,27,7,22
0,28,-6,21
0,30,-7,21
0,33,8,22
0,31,-7,22
0,36,7,23
0,36,7,24
0,36,7,25
0,30,-6,23
0,30,-6,24
0,30,-6,25
0,28,-5,23
0,28,-4,23
0,28,-3,23
0,28,-2,23
0,28,-1,23
0,28,0,23
0,28,1,23
0,28,2,23
0,28,3,23
0,28,5,23
0,28,4,23
0,28,6,23
0,28,6,24
0,28,5,24
0,28,4,24
0,28,3,24
0,28,2,24
0,28,1,24
0,28,0,24
0,28,-1,24
0,28,-2,24
0,28,-4,24
0,28,-5,24
0,28,-5,25
0,28,-4,25
0,28,-3,25
0,28,-2,25
0,28,-1,25
0,28,0,25
0,28,1,25
0,28,2,25
0,28,3,25
0,28,4,25
0,28,5,25
0,28,6,25
0,37,-8,22
0,37,-7,23
0,37,-7,24
0,37,-7,25
0,37,8,25
0,37,8,24
0,37,8,23
0,37,9,22
0,28,-3,24
0,28,-5,26
0,28,-4,26
0,28,-3,26
0,28,-2,26
0,28,-1,26
0,28,0,26
0,28,1,26
0,28,2,26
0,28,3,26
0,28,4,26
0,28,5,26
0,28,6,26
0,30,-6,26
0,30,-6,27
0,30,-6,28
0,30,-6,29
0,30,-6,30
0,30,-6,31
0,30,-6,32
0,30,-6,33
0,30,-6,34
0,30,-6,35
0,30,-6,36
0,30,-6,37
0,30,-6,38
0,30,-6,39
0,30,-6,40
0,30,-6,41
0,30,-6,42
0,30,-6,43
0,30,-6,44
0,30,-6,45
0,30,-6,46
0,30,-6,47
0,30,-6,48
0,30,-6,49
0,30,-6,50
0,30,-6,51
0,30,-6,52
0,30,-6,53
0,30,-6,54
0,30,-6,55
0,30,-6,56
0,30,-6,57
0,30,-6,58
0,30,-6,59
0,30,-6,60
0,30,-6,61
0,30,-6,62
0,30,-6,63
0,30,-6,64
0,30,-6,66
0,30,-6,65
0,30,-6,67
0,30,-6,68
0,30,-6,69
0,30,-6,70
0,30,-6,71
0,30,-6,72
0,30,-6,73
0,30,-6,74
0,30,-6,75
0,30,-6,76
0,30,-6,77
0,30,-6,78
0,30,-6,79
0,30,-6,80
0,30,-6,81
0,30,-6,82
0,36,7,26
0,36,7,27
0,36,7,28
0,36,7,29
0,36,7,30
0,36,7,31
0,36,7,32
0,36,7,33
0,36,7,35
0,36,7,34
0,36,7,36
0,36,7,37
0,36,7,38
0,36,7,39
0,36,7,40
0,36,7,41
0,36,7,42
0,36,7,43
0,36,7,44
0,36,7,45
0,36,7,46
0,36,7,47
0,36,7,48
0,36,7,49
0,36,7,50
0,36,7,51
0,36,7,52
0,36,7,53
0,36,7,54
0,36,7,55
0,36,7,56
0,36,7,57
0,36,7,58
0,36,7,59
0,36,7,60
0,36,7,61
0,36,7,62
0,36,7,63
0,36,7,64
0,36,7,65
0,36,7,66
0,36,7,67
0,36,7,68
0,36,7,69
0,36,7,70
0,36,7,71
0,36,7,72
0,36,7,73
0,36,7,74
0,36,7,76
0,36,7,75
0,36,7,77
0,36,7,78
0,36,7,79
0,36,7,80
0,36,7,81
0,36,7,82
0,28,6,82
0,28,5,82
0,28,4,82
0,28,3,82
0,28,2,82
0,28,1,82
0,28,0,82
0,28,-1,82
0,28,-2,82
0,28,-3,82
0,28,-4,82
0,28,-5,82
0,28,-5,83
0,28,-4,83
0,28,-3,83
0,28,-1,83
0,28,-2,83
0,28,0,83
0,28,1,83
0,28,2,83
0,28,3,83
0,28,4,83
0,28,5,83
0,28,6,83
0,36,7,83
0,30,-6,83
0,28,-5,86
0,28,-4,86
0,28,-3,86
0,28,-2,86
0,28,-1,86
0,28,0,86
0,28,1,86
0,28,2,86
0,28,3,86
0,28,4,86
0,28,5,86
0,28,6,86
0,27,-5,87
0,27,-4,87
0,27,-3,87
0,27,-2,87
0,27,-1,87
0,27,0,87
0,27,1,87
0,27,2,87
0,27,3,87
0,27,4,87
0,27,5,87
0,27,6,87
0,30,-6,84
0,30,-6,85
0,30,-6,86
0,36,7,84
0,36,7,85
0,36,7,86
0,28,6,85
0,28,6,84
0,28,5,84
0,28,5,85
0,28,4,85
0,28,4,84
0,28,3,84
0,28,3,85
0,28,2,85
0,28,2,84
0,28,1,84
0,28,1,85
0,28,-1,85
0,28,0,85
0,28,0,84
0,28,-1,84
0,28,-2,84
0,28,-2,85
0,28,-3,85
0,28,-3,84
0,28,-4,84
0,28,-4,85
0,28,-5,85
0,28,-5,84
0,31,-6,87
0,33,7,87
0,37,-6,88
0,37,-7,87
0,37,7,88
0,37,8,87
0,39,-3,90
0,40,-2,90
0,41,-1,90
0,42,-3,91
0,43,-2,91
0,44,-1,91
0,44,4,91
0,43,3,91
0,41,4,90
0,40,3,90
0,39,2,90
0,42,2,91
0,30,-5,88
0,36,-4,88
0,36,-4,89
0,36,-4,90
0,36,-4,91
0,36,6,88
0,36,6,89
0,36,6,90
0,36,6,91
0,30,5,88
0,30,5,89
0,30,5,90
0,30,5,91
0,30,-5,89
0,30,-5,90
0,30,-5,91
0,30,-5,92
0,30,-5,93
0,30,-5,94
0,30,5,92
0,30,5,93
0,30,5,94
0,36,6,92
0,36,6,93
0,36,6,94
0,36,-4,92
0,36,-4,93
0,36,-4,94
0,30,-5,95
0,31,-5,96
0,33,6,96
0,36,6,95
0,32,4,96
0,32,5,96
0,32,3,96
0,32,2,96
0,32,1,96
0,32,-1,96
0,32,0,96
0,32,-2,96
0,32,-3,96
0,32,-4,96
0,34,-3,95
0,34,-2,95
0,34,-1,95
0,34,1,95
0,34,0,95
0,34,2,95
0,34,3,95
0,34,4,95
0,28,5,95
0,28,-4,95
0,37,-6,96
0,37,-5,97
0,37,6,97
0,48,7,96
0,46,0,93
0,46,1,93
0,48,9,93
0,48,10,92
0,48,10,91
0,48,11,93
0,48,10,94
0,48,8,91
0,48,9,89
0,48,11,87
0,48,11,86
0,48,12,88
0,48,9,86
0,48,9,84
0,48,10,83
0,47,11,90
0,47,11,92
0,47,9,94
0,47,10,96
0,47,8,88
0,47,11,84
0,47,6,98
0,47,4,100
0,47,0,100
0,47,-4,99
0,47,-3,98
0,47,-7,98
0,47,-8,99
0,47,-10,96
0,47,-8,94
0,47,-12,92
0,47,-10,90
0,47,-8,87
0,47,-7,90
0,47,-11,87
0,48,-9,89
0,48,-11,90
0,48,-10,92
0,48,-10,94
0,48,-13,97
0,48,-10,98
0,48,-9,97
0,48,-6,100
0,48,-2,100
0,48,-1,99
0,48,1,98
0,48,3,99
0,48,4,98
0,48,7,99
0,48,11,99
0,48,9,98
0,48,9,96
0,48,-7,96
0,48,-8,92
0,48,-9,86
0,48,-11,84
0,48,-11,81
0,48,-9,79
0,48,-8,81
0,48,-10,77
0,48,-11,71
0,48,-8,65
0,48,12,80
0,48,11,79
0,48,8,79
0,48,9,75
0,48,12,75
0,48,10,72
0,48,12,65
0,47,11,66
0,47,10,78
0,47,10,80
0,47,13,83
0,47,-9,72
0,47,-15,74
0,47,-14,79
0,47,-14,71
0,47,-18,69
0,47,-14,64
0,47,15,72
0,47,16,77
0,47,14,81
0,47,14,69
0,47,9,69
0,49,16,82
0,50,16,83
0,50,14,90
0,49,14,89
0,49,12,96
0,50,12,97
0,50,16,97
0,49,16,96
0,49,14,100
0,50,14,101
0,50,8,102
0,49,8,101
0,48,14,96
0,48,14,93
0,48,17,93
0,48,17,89
0,48,15,87
0,48,14,99
0,48,16,102
0,47,17,100
0,47,11,102
0,47,6,102
0,47,-4,102
0,49,-14,100
0,50,-14,101
0,50,-17,95
0,49,-17,94
0,49,-14,89
0,50,-14,90
0,50,-16,85
0,49,-16,84
0,48,-15,83
0,48,-18,81
0,48,-18,89
0,48,-15,87
0,48,-14,95
0,48,-18,99
0,51,-2,97
0,52,-1,97
0,53,-2,98
0,54,-1,98
0,51,2,97
0,52,3,97
0,53,2,98
0,54,3,98
0,56,9,60
0,55,9,59
0,57,-8,58
0,57,15,54
0,57,13,50
0,57,-13,42
0,58,10,39
0,59,-8,36
0,60,-8,37
0,8,-11,29
0,10,12,28
0,14,12,27
0,15,13,27
0,15,14,27
0,16,15,27
0,19,15,28
0,18,14,28
0,18,13,28
0,18,13,29
0,18,14,29
0,18,14,30
0,18,13,30
0,18,12,30
0,18,12,29
0,18,11,30
0,18,12,31
0,18,14,31
0,18,14,32
0,18,13,33
0,18,13,32
0,18,13,31
0,18,12,32
0,18,12,33
0,18,11,33
0,18,11,32
0,18,14,33
0,18,15,33
0,18,15,32
0,18,15,31
0,18,16,32
0,18,16,33
0,18,16,34
0,18,16,36
0,18,15,36
0,18,16,35
0,18,15,35
0,18,15,34
0,18,14,35
0,18,14,36
0,18,17,36
0,18,10,33
0,19,15,29
0,11,15,30
0,10,11,29
0,11,16,31
0,16,16,30
0,16,17,31
0,19,17,32
0,19,17,33
0,19,17,34
0,11,17,35
0,16,18,35
0,19,18,36
0,22,18,37
0,21,17,37
0,21,16,37
0,21,15,37
0,21,14,37
0,20,13,37
0,17,13,36
0,17,13,35
0,18,14,34
0,12,13,34
0,21,12,34
0,21,11,34
0,21,10,34
0,20,9,34
0,17,9,33
0,14,9,32
0,10,10,32
0,17,10,31
0,18,11,31
0,17,10,30
0,14,10,29
0,14,11,28
0,38,11,7
0,38,-6,4
0,38,-9,1
0,38,-13,7
0,59,-9,7
0,60,-9,8
0,60,10,8
0,59,10,7
