Fill:0
0,2,-2,-2
0,2,-2,-3
0,2,-2,-4
1,2,6,-2
0,28,0,93
0,28,1,93
0,28,1,92
0,28,0,92
0,28,0,91
0,28,1,91
0,28,2,91
0,28,2,92
0,28,2,93
0,28,2,94
0,28,1,94
0,28,-1,94
0,28,0,94
0,28,-1,93
0,28,-1,92
0,28,-1,91
0,28,3,91
0,28,3,92
0,28,3,94
0,28,-2,94
0,28,-2,93
0,28,-2,92
0,28,-2,91
2,25,4,92
1,26,4,93
1,26,-3,93
1,25,-3,92
1,28,3,93
1,18,-6,93
1,18,-7,93
1,18,-7,92
1,18,-6,91
1,18,-6,92
1,18,-7,91
1,18,-6,90
1,18,-6,89
1,18,-5,89
1,18,-4,88
1,18,-4,87
1,18,-5,88
1,18,-4,86
1,18,-3,86
1,18,-1,86
1,18,0,85
1,18,-2,85
1,18,-1,85
1,18,-3,85
1,18,-2,84
1,18,-1,84
1,18,0,84
1,18,-1,83
1,18,0,82
1,18,0,83
1,18,1,83
1,18,1,82
1,18,2,83
1,18,1,84
1,18,2,82
1,18,3,82
1,18,3,83
1,18,4,83
1,18,4,84
1,18,6,85
1,18,5,84
1,18,5,83
1,18,6,83
1,18,6,84
1,18,7,84
1,18,4,82
1,18,5,82
1,18,5,81
1,18,6,81
1,18,4,81
1,18,7,85
1,18,8,86
1,18,8,85
1,18,9,86
1,18,9,87
1,18,10,87
1,18,10,88
1,18,11,88
1,18,10,89
1,18,10,90
1,18,10,91
1,18,11,91
1,18,10,92
1,18,10,93
1,18,10,94
1,18,9,95
1,18,8,95
1,18,9,97
1,18,8,97
1,18,7,97
1,18,8,96
1,18,9,94
1,18,9,96
1,18,9,93
1,18,10,95
1,18,10,96
1,18,11,96
1,18,11,97
1,18,12,97
1,18,13,97
1,18,12,96
1,18,13,96
1,18,14,98
1,18,13,98
1,18,14,97
1,18,15,97
1,18,15,98
1,18,7,96
1,18,6,97
1,18,5,98
1,18,6,98
1,18,5,97
1,18,-6,94
1,18,-6,95
1,18,-6,96
1,18,-7,97
1,18,-5,97
1,18,-5,96
1,18,-6,97
1,18,-7,96
1,21,6,86
1,22,1,86
1,22,0,87
1,22,-3,89
1,22,-4,90
1,22,2,85
1,13,0,86
1,13,1,85
1,13,-4,89
1,19,-3,88
1,19,-5,91
1,19,-5,92
1,19,-5,93
1,19,-5,94
1,13,-5,90
1,13,-3,87
1,18,-2,86
1,21,-2,87
1,21,-1,87
1,13,2,84
1,12,3,84
1,20,3,85
1,21,4,85
1,12,5,85
1,20,5,86
1,12,7,86
1,20,7,87
1,12,8,87
1,12,9,88
1,20,8,88
1,17,9,89
1,17,9,90
1,17,9,91
1,17,-8,91
1,17,-8,92
1,17,-8,93
1,17,-8,96
1,17,-8,97
1,17,-5,86
1,19,11,93
1,19,11,94
1,17,8,93
1,17,4,97
1,17,4,98
1,14,-5,85
1,14,-7,88
1,14,-8,90
1,14,-8,95
1,14,-2,82
1,14,-3,83
1,14,-4,84
1,14,-1,81
1,14,3,80
1,16,7,80
1,19,7,82
1,16,8,83
1,16,9,84
1,16,10,85
1,16,11,86
1,16,12,87
1,16,12,90
1,16,14,95
1,16,16,96
1,17,-7,89
1,10,-7,90
1,10,-5,87
1,10,-4,85
1,10,-3,84
1,10,-2,83
1,10,-1,82
1,10,3,81
1,11,7,83
1,11,8,84
1,11,9,85
1,11,10,86
1,11,11,87
1,11,11,90
1,13,11,89
1,19,7,81
1,18,6,82
1,15,6,80
1,15,5,80
1,15,4,80
1,15,2,81
1,15,1,81
1,15,0,81
1,10,-6,88
1,14,-6,87
1,10,-7,95
1,12,-7,94
1,20,-8,94
1,19,12,88
1,22,12,89
1,19,12,91
1,22,12,92
1,13,11,92
1,10,9,92
1,14,8,92
1,10,8,94
1,10,7,95
1,10,6,96
1,11,11,95
1,15,12,95
1,15,13,95
1,14,6,95
1,14,7,94
1,15,5,96
1,14,4,96
1,11,-5,95
1,16,-4,95
1,19,-4,96
1,19,-4,97
1,11,14,96
1,15,15,96
1,19,16,97
1,19,16,98
